{
    "jet_collection": "AntiKt4UFOCSSKJets",
    "calibration": { "file": "fragments/ufo-calibration.json" },
    "selection": { "file": "fragments/pflow-selection.json" },
    "vertex_collection": "PrimaryVertices",
    "dl2_configs": [],
    "variables": { 
        "file": "fragments/ufo-variables.json",
        "jet": {
            "uints": ["jetFoldHash", "jetFoldHash_noHits"],
            "floats": [
                "dRGN2v01_pb",
                "dRGN2v01_pc",
                "dRGN2v01_pu",
                "dRGN2v01_ptau",
                "GAGN2v01_pb",
                "GAGN2v01_pc",
                "GAGN2v01_pu",
                "GAGN2v01_ptau"
            ]
        }
    },
    "tracks": [
        {
            "n_to_save": 40,
            "selection": { "file": "fragments/r22default-track-cuts.json" },
            "sort_order": "d0_significance",
            "input_name": "DeltaRTrackLink",
            "output_name": "dRtracks",
            "variables": { "file": "fragments/ufo-track-variables.json"},
            "ip_prefix": "btagIp_"   
        },
        {
            "n_to_save": 40,
            "selection": { "file": "fragments/r22default-track-cuts.json" },
            "sort_order": "d0_significance",
            "input_name": "GhostTrack",
            "output_name": "GAtracks",
            "variables": { "file": "fragments/ufo-track-variables.json"},
            "ip_prefix": "btagIp_"   
        }
    ],
    "truths" : [
        { "file": "fragments/overlap-leptons-TRUTH3.json" },
        {
            "association": {
                "file": "fragments/baseline-truth-kinematics.json",
                "particles": "promptLepton"
            },
            "decorate_summary": true
        }
    ],
    "decorate": {
        "lepton_decay_label": true
    }
}